…
Suppose you train a model:
==========================




```r
info
```

```
# A tibble: 489 x 15
      x1 name  gender eye_color race  hair_color height publisher skin_color
   <dbl> <chr> <chr>  <chr>     <chr> <chr>       <dbl> <chr>     <chr>     
 1     0 A-Bo… Male   yellow    Human No Hair       203 Marvel C… -         
 2     1 Abe … Male   blue      Icth… No Hair       191 Dark Hor… blue      
 3     2 Abin… Male   blue      Unga… No Hair       185 DC Comics red       
 4     3 Abom… Male   green     Huma… No Hair       203 Marvel C… -         
 5     5 Abso… Male   blue      Human No Hair       193 Marvel C… -         
 6     7 Adam… Male   blue      Human Blond         185 DC Comics -         
 7     8 Agen… Female blue      -     Blond         173 Marvel C… -         
 8     9 Agen… Male   brown     Human Brown         178 Marvel C… -         
 9    10 Agen… Male   -         -     -             191 Marvel C… -         
10    11 Air-… Male   blue      -     White         188 Marvel C… -         
# … with 479 more rows, and 6 more variables: alignment <chr>, weight <dbl>,
#   female <lgl>, train <lgl>, hair_blond <lgl>, hair_color_simplified <fct>
```
…
